\relax 
\providecommand\hyper@newdestlabel[2]{}
\catcode `"\active 
\providecommand\HyperFirstAtBeginDocument{\AtBeginDocument}
\HyperFirstAtBeginDocument{\ifx\hyper@anchor\@undefined
\global\let\oldcontentsline\contentsline
\gdef\contentsline#1#2#3#4{\oldcontentsline{#1}{#2}{#3}}
\global\let\oldnewlabel\newlabel
\gdef\newlabel#1#2{\newlabelxx{#1}#2}
\gdef\newlabelxx#1#2#3#4#5#6{\oldnewlabel{#1}{{#2}{#3}}}
\AtEndDocument{\ifx\hyper@anchor\@undefined
\let\contentsline\oldcontentsline
\let\newlabel\oldnewlabel
\fi}
\fi}
\global\let\hyper@last\relax 
\gdef\HyperFirstAtBeginDocument#1{#1}
\providecommand\HyField@AuxAddToFields[1]{}
\providecommand\HyField@AuxAddToCoFields[2]{}
\babel@aux{polish}{}
\@writefile{toc}{\contentsline {section}{\numberline {1}Wst\IeC {\k e}p}{2}{section.1}}
\@writefile{toc}{\contentsline {subsection}{\numberline {1.1}W\IeC {\l }asno\IeC {\'s}ci macierzy dodatnio p\IeC {\'o}\IeC {\l }okre\IeC {\'s}lonych}{2}{subsection.1.1}}
\newlabel{sdproperties}{{1}{2}{}{pthm.1}{}}
\newlabel{sdmatrixconvex}{{1}{3}{}{cnj.1}{}}
\newlabel{obserwacja1}{{1}{3}{}{remark.1}{}}
\newlabel{obserwacja2}{{2}{3}{}{remark.2}{}}
\newlabel{prop2}{{2}{3}{}{cnj.2}{}}
\@writefile{toc}{\contentsline {subsection}{\numberline {1.2}Technika programowania p\IeC {\'o}\IeC {\l }okre\IeC {\'s}lonego}{4}{subsection.1.2}}
\newlabel{eq:SDP}{{1.1}{4}{Technika programowania półokreślonego}{equation.1.1}{}}
\@writefile{toc}{\contentsline {section}{\numberline {2}Zastosowanie programowania p\IeC {\'o}\IeC {\l }okre\IeC {\'s}lonego w aproksymacji}{4}{section.2}}
\@writefile{toc}{\contentsline {subsection}{\numberline {2.1}Problem MAX-CUT}{4}{subsection.2.1}}
\@writefile{toc}{\contentsline {subsubsection}{\numberline {2.1.1}Reprezentacja w postaci \IeC {\'s}ci\IeC {\'s}le kwadratowej i wektorowej}{4}{subsubsection.2.1.1}}
\citation{ellipsoidMethod}
\newlabel{MAXCUTquadratic}{{2.1}{5}{}{equation.2.1}{}}
\newlabel{MAXCUTvectoro}{{2.2}{5}{}{equation.2.2}{}}
\@writefile{toc}{\contentsline {subsubsection}{\numberline {2.1.2}Reprezentacja w postaci zadania p\IeC {\'o}\IeC {\l }okre\IeC {\'s}lonego}{5}{subsubsection.2.1.2}}
\newlabel{sdpvectorequality}{{2}{6}{}{pthm.2}{}}
\newlabel{eq:GENERALvectoro}{{2.3}{6}{}{equation.2.3}{}}
\newlabel{SDPmaxcut}{{2.4}{7}{Reprezentacja w postaci zadania półokreślonego}{equation.2.4}{}}
\@writefile{toc}{\contentsline {subsubsection}{\numberline {2.1.3}Algorytm zaokr\IeC {\k a}glania randomizowanego}{7}{subsubsection.2.1.3}}
\newlabel{algorytmRandomizowany}{{2.1.3}{7}{Algorytm zaokrąglania randomizowanego}{subsubsection.2.1.3}{}}
\newlabel{randrounding}{{2.1.3}{7}{Algorytm zaokrąglania randomizowanego}{subsubsection.2.1.3}{}}
\newlabel{probIsEqualToAngle}{{3}{8}{}{cnj.3}{}}
\newlabel{alphaDef}{{4}{8}{}{cnj.4}{}}
\newlabel{angleAlphaLemma}{{5}{8}{}{cnj.5}{}}
\newlabel{algorithmExpectedValue}{{6}{9}{}{cnj.6}{}}
\@writefile{toc}{\contentsline {subsubsection}{\numberline {2.1.4}Generalizacja na grafy z ujemnymi wagami kraw\IeC {\k e}dzi}{9}{subsubsection.2.1.4}}
\newlabel{negativeWangleLemma}{{7}{9}{}{cnj.7}{}}
\newlabel{negativeWeights}{{8}{10}{}{cnj.8}{}}
\@writefile{toc}{\contentsline {subsection}{\numberline {2.2}MAX-2SAT}{10}{subsection.2.2}}
\@writefile{toc}{\contentsline {subsubsection}{\numberline {2.2.1}Reprezentacja w postaci \IeC {\'s}ci\IeC {\'s}le kwadratowej i wektorowej}{11}{subsubsection.2.2.1}}
\newlabel{MAX2SATquadratic}{{2.5}{11}{}{equation.2.5}{}}
\newlabel{MAX2SATvector}{{2.6}{11}{Reprezentacja w postaci ściśle kwadratowej i wektorowej}{equation.2.6}{}}
\@writefile{toc}{\contentsline {subsubsection}{\numberline {2.2.2}Reprezentacja w postaci zadania p\IeC {\'o}\IeC {\l }okre\IeC {\'s}lonego}{11}{subsubsection.2.2.2}}
\@writefile{toc}{\contentsline {subsubsection}{\numberline {2.2.3}Algorytm zaokr\IeC {\k a}glania randomizowanego}{12}{subsubsection.2.2.3}}
\@writefile{toc}{\contentsline {subsection}{\numberline {2.3}Kolorowanie graf\IeC {\'o}w 3-kolorowalnych}{12}{subsection.2.3}}
\newlabel{GRAPHCOLORvector}{{2.7}{13}{}{equation.2.7}{}}
\newlabel{coloringUpperBound}{{10}{13}{}{cnj.10}{}}
\@writefile{toc}{\contentsline {subsubsection}{\numberline {2.3.1}Algorytm zaokr\IeC {\k a}glania randomizowanego}{14}{subsubsection.2.3.1}}
\citation{csdp}
\@writefile{toc}{\contentsline {section}{\numberline {3}Implementacja problemu MAX-CUT}{15}{section.3}}
\citation{maxcuttests1}
\citation{maxcuttests1}
\bibcite{vazi}{1}
\bibcite{d}{2}
\bibcite{i}{3}
\bibcite{ellipsoidMethod}{4}
\bibcite{csdp}{5}
\bibcite{maxcuttests1}{6}
\bibcite{b}{7}
\bibcite{c}{8}
